{"posts":[{"filename":"aaaew-post.md","title":"aaay Amazing Blog Post","pubDate":"2026-03-21","description":"A blog post about aaay Amazing Blog Post","author":"Blog Author","tags":["blog","astro"],"image":"/blog-images/TA-2026-02-04-01-07-16---highqual-2168316230-1774125717877-qixrl5.png","contentPreview":"---\ntitle: \"aaay Amazing Blog Post\"\npubDate: 2026-03-21\ndescription: \"A blog post about aaay Amazing Blog Post\"\nauthor: \"Blog Author\"\ntags: [\"blog\", \"astro\"]\nimage: \"/blog-images/TA-2026-02-04-01-07-1...","slug":"aaaew-post"},{"filename":"aew-poshhht.md","title":"ddd","pubDate":"2026-03-21","description":"A blog post about ddd","author":"Blog Author","tags":["blog","astro"],"image":"/blog-images/648705389-2324659031356094-912296999893148019-n-1774123634491-qak8mj.jpg","contentPreview":"---\ntitle: \"ddd\"\npubDate: 2026-03-21\ndescription: \"A blog post about ddd\"\nauthor: \"Blog Author\"\ntags: [\"blog\", \"astro\"]\nimage: \"/blog-images/648705389-2324659031356094-912296999893148019-n-17741236344...","slug":"aew-poshhht"},{"filename":"aew-post.md","title":"My Amazing Blog Postaaa","pubDate":"2026-03-21","description":"A blog post about My Amazing Blog Postaaa","author":"Blog Author","tags":["blog","astro"],"image":"/blog-images/7ZYA760Z6WCV99SCFX6KAZ8AH0-1774121637945-yv583h.jpeg","contentPreview":"---\ntitle: \"My Amazing Blog Postaaa\"\npubDate: 2026-03-21\ndescription: \"A blog post about My Amazing Blog Postaaa\"\nauthor: \"Blog Author\"\ntags: [\"blog\", \"astro\"]\nimage: \"/blog-images/7ZYA760Z6WCV99SCFX6...","slug":"aew-post"},{"filename":"new-p777ost.md","title":"My Amazing Blog Post777777777","pubDate":"2026-03-21","description":"A blog post about My Amazing Blog Post777777777","author":"Blog Author","tags":["blog","astro"],"image":"/blog-images/2026-03-13T01-37-38-1-1774054508769-5ljz8r.jpg","contentPreview":"---\ntitle: \"My Amazing Blog Post777777777\"\npubDate: 2026-03-21\ndescription: \"A blog post about My Amazing Blog Post777777777\"\nauthor: \"Blog Author\"\ntags: [\"blog\", \"astro\"]\nimage: \"/blog-images/2026-03...","slug":"new-p777ost"},{"filename":"new-posggt.md","title":"ay Amazing Blog Post","pubDate":"2026-03-21","description":"A blog post about ay Amazing Blog Post","author":"Blog Author","tags":["blog","astro"],"image":"/blog-images/R1R5C75P7JNPA34X66QGAFRKZ0-1774126029497-0vi736.jpeg","contentPreview":"---\ntitle: \"ay Amazing Blog Post\"\npubDate: 2026-03-21\ndescription: \"A blog post about ay Amazing Blog Post\"\nauthor: \"Blog Author\"\ntags: [\"blog\", \"astro\"]\nimage: \"/blog-images/R1R5C75P7JNPA34X66QGAFRKZ...","slug":"new-posggt"}],"pagination":{"page":1,"limit":5,"total":13,"totalPages":3,"hasNext":true,"hasPrev":false}}